S0;01;1;1;22AR00
S0;01;1;2;22UP00
S0;01;1;3;22MA00
S0;01;1;4;22EJ10
S0;01;2;1;22VD00
S0;01;2;2;22DM00
S0;01;2;3;22OOP0
S0;01;2;4;22ME00
S1;01;1;1;22AR00
S1;01;1;2;22UP00
S1;01;1;3;22MA00
S1;01;1;4;22IP01
S1;01;2;1;22VD00
S1;01;2;2;22DM00
S1;01;2;3;22OOP0
S2;01;1;1;22AR00
S2;01;1;2;22UP00
S2;01;1;3;22MA00
S2;01;1;4;22EJ10
S2;01;2;1;22VD00
S2;01;2;2;22DM00
S2;01;2;3;22OOP0
S2;01;2;4;22ME00