{
    "title": "Naziv datoteke (sa ekstenzijom)",
    "content": [
        {
            "title": "Labela 1",
            "code": "label_1",
            "description": "opis",
            "type": "INT",
            "length": 32,
            "identifying": false,
            "notNull": false,
            "unique": false
        }
    ],
    "relations": {
        "to": [
            {
                "file": "datoteka sa kojom je povezana (putanja, nebitno u kojem folderu/kolekcija)",
                "code": "naziv koda labele iz trenutne datoteke",
                "foreignCode": "naziv koda labele iz povezane datoteke"
            }
        ],
        "from": [
            {
                "file": "datoteka sa kojom je povezana (putanja, nebitno u kojem folderu/kolekcija)",
                "code": "naziv koda labele iz trenutne datoteke",
                "foreignCode": "naziv koda labele iz povezane datoteke"
            }
        ]
    }
}