Viskoškolska ustanova;Broj indeksa;Prezime;Ime roditelja;Ime;Pol;Telefon;JMBG;Datum rođenja;Adresa stanovanja;Država oznaka;Naseljeno mesto oznaka
S1;1;Barović;;Aleksa;M;;;;;;
S1;2;Bajić;;Aleksandar;M;;;;;;           
S1;3;Stupar;;Aleksandar;M;;;;;;
S1;4;Gluhović;;Aleksanra;Ž;;;;;;
S1;5;Mišković;;Damjan;M;;;;;;
S1;6;Žakula;;Darko;M;;;;;;
S1;7;Borbaš;;David;M;;;;;;
S1;8;Makivić;;Dragana;Ž;;;;;;
S1;9;Jovanović;;Dušan;M;;;;;;
S1;10;Kokot;;Dušan;M;;;;;;
S1;11;Pavković;;Filip;M;;;;;;
S1;12;Svjetlanović;;Filip;M;;;;;;
S1;13;Žugić;;Filip;M;;;;;;
S1;14;Radovanović;;Igor;M;;;;;;
S1;15;Agbsbs;;Isidora;Ž;;;;;;
S1;16;Marko;;Laura;Ž;;;;;;
S1;17;Matić;;Lazar;M;;;;;;
S1;18;Puzić;;Lena;Ž;;;;;;
S1;19;Kljajić;;Luka;M;;;;;;
S1;20;Latinović;;Luka;M;;;;;;
S1;21;Marinko;;Luka;M;;;;;;
S1;22;Stankov;;Luka;M;;;;;;
S1;23;Perfilev;;Maksim;M;;;;;;
S1;24;Vučković;;Mihajlo;M;;;;;;
S1;25;Lazović;;Milica;Ž;;;;;;
S1;26;Mrkšić;;Miloš;M;;;;;;
S1;27;Novaković;;Miloš;M;;;;;;
S1;28;Trbojević;;Miloš;M;;;;;;
S1;29;Đorđević;;Miloš;M;;;;;;
S1;30;Milanović;;Marko;M;;;;;;
S1;31;Rakić;;Mladen;M;;;;;;
S1;32;Kovačević;;Nemanja;M;;;;;;
S1;33;Trifković;;Nemanja;M;;;;;;
S1;34;Bariić;;Nikola;M;;;;;;
S1;35;Đokić;;Nikolina;Ž;;;;;;
S1;36;Šmuđa;;Nina;Ž;;;;;;
S1;37;Grković;;Sanja;Ž;;;;;;
S1;38;Jović;;Sara;Ž;;;;;;
S1;39;Belančić;;Stefan;M;;;;;;
S1;40;Breberina;;Stefan;M;;;;;;
S1;41;Milosavljević;;Stefan;M;;;;;;
S1;42;Topalov;;Stefan;M;;;;;;
S1;43;Jelić;;Teodor;M;;;;;;
S1;44;Filko;;Uroš;M;;;;;;
S1;45;Đilas;;Vasilije;M;;;;;;
S1;46;Vukadinović;;Zorana;Ž;;;;;;
S1;47;Trbović;;Đorđe;M;;;;;;