S0;1;Tomašević;;Violeta;;Ž;;;SRB;1
S0;2;Perišić;Rade;Branko;;M;;;SRB;2
S0;3;Papić;;Tamara;;Ž;;;SRB;1
S0;4;Janičijević;;Stefana;;Ž;;;SRB;1
S0;5;Gavrilović;;Jelena;;Ž;;;SRB;1
S0;6;Vidović;;Mladen;;M;;;SRB;2
S0;7;Dragović;;Uroš;;M;;;SRB;1
S0;8;Paroški;;Milan;;M;;;SRB;2
S0;9;Dobrijević;;Gordana;;Ž;;;SRB;1
S0;10;Mitrović;;Aleksandra;;Ž;;;SRB;2
S0;11;Živković;;Miodrag;;M;;;SRB;1
S0;12;Radosavljević;;Ivan;;M;;;SRB;2
S0;13;Živković;;Dejan;;M;;;SRB;1
S0;14;Prodanović;;Marijana;;M;;;SRB;1
S0;15;Suzić;;Radmila;;M;;;SRB;2